{
	"info": {
		"_postman_id": "35159931-843f-403f-9696-d15ad4dc16ea",
		"name": "posting",
		"schema": "https://schema.getpostman.com/json/collection/v2.1.0/collection.json"
	},
	"item": [
		{
			"name": "localhost:8003/api/method/lib.utils.api.create_data?first_name=neha1&last_name=sharma&email=kanchan@gmail.com&msg=hello&usr=administrator&pwd=kanchan@68",
			"request": {
				"method": "POST",
				"header": [],
				"url": {
					"raw": "localhost:8003/api/method/lib.utils.api.create_data?first_name=neha1&last_name=sharma&email=kanchan@gmail.com&msg=hello&usr=administrator&pwd=kanchan@68",
					"host": [
						"localhost"
					],
					"port": "8003",
					"path": [
						"api",
						"method",
						"lib.utils.api.create_data"
					],
					"query": [
						{
							"key": "first_name",
							"value": "neha1"
						},
						{
							"key": "last_name",
							"value": "sharma"
						},
						{
							"key": "email",
							"value": "kanchan@gmail.com"
						},
						{
							"key": "msg",
							"value": "hello"
						},
						{
							"key": "usr",
							"value": "administrator"
						},
						{
							"key": "pwd",
							"value": "kanchan@68"
						}
					]
				}
			},
			"response": []
		},
		{
			"name": "localhost:8003/api/method/login?usr=administrator&pwd=kanchan@68",
			"request": {
				"method": "POST",
				"header": [],
				"url": {
					"raw": "localhost:8003/api/method/login?usr=administrator&pwd=kanchan@68",
					"host": [
						"localhost"
					],
					"port": "8003",
					"path": [
						"api",
						"method",
						"login"
					],
					"query": [
						{
							"key": "usr",
							"value": "administrator"
						},
						{
							"key": "pwd",
							"value": "kanchan@68"
						}
					]
				}
			},
			"response": []
		},
		{
			"name": "localhost:8003/api/method/lib.utils.api.create_data?first_name=Kanchan&last_name=Sharma&email=kanchan@gmail.com&message=Hello&usr=administrator&pwd=kanchan@68",
			"request": {
				"method": "POST",
				"header": [],
				"url": {
					"raw": "localhost:8003/api/method/lib.utils.api.create_data?first_name=ankit&last_name=Sharma&email=kanchan@gmail.com&message=Hello&usr=administrator&pwd=kanchan@68",
					"host": [
						"localhost"
					],
					"port": "8003",
					"path": [
						"api",
						"method",
						"lib.utils.api.create_data"
					],
					"query": [
						{
							"key": "first_name",
							"value": "ankit"
						},
						{
							"key": "last_name",
							"value": "Sharma"
						},
						{
							"key": "email",
							"value": "kanchan@gmail.com"
						},
						{
							"key": "message",
							"value": "Hello"
						},
						{
							"key": "usr",
							"value": "administrator"
						},
						{
							"key": "pwd",
							"value": "kanchan@68"
						}
					]
				}
			},
			"response": []
		}
	]
}